{
 "custom_fields": [],
 "custom_perms": [],
 "doctype": "Item Barcode",
 "property_setters": [
  {
   "_assign": null,
   "_comments": null,
   "_liked_by": null,
   "_user_tags": null,
   "creation": "2019-07-12 05:29:04.418963",
   "default_value": null,
   "doc_type": "Item Barcode",
   "docstatus": 0,
   "doctype_or_field": "DocField",
   "field_name": "barcode_type",
   "idx": 0,
   "modified": "2019-07-12 05:29:04.418963",
   "modified_by": "Administrator",
   "name": "Item Barcode-barcode_type-options",
   "owner": "Administrator",
   "parent": null,
   "parentfield": null,
   "parenttype": null,
   "property": "options",
   "property_type": "Text",
   "value": "\nCode128\nEAN\nUPC-A"
  },
  {
   "_assign": null,
   "_comments": null,
   "_liked_by": null,
   "_user_tags": null,
   "creation": "2019-07-12 05:29:04.295813",
   "default_value": null,
   "doc_type": "Item Barcode",
   "docstatus": 0,
   "doctype_or_field": "DocField",
   "field_name": "barcode_type",
   "idx": 0,
   "modified": "2019-07-12 05:29:04.295813",
   "modified_by": "Administrator",
   "name": "Item Barcode-barcode_type-default",
   "owner": "Administrator",
   "parent": null,
   "parentfield": null,
   "parenttype": null,
   "property": "default",
   "property_type": "Text",
   "value": "Code128"
  },
  {
   "_assign": null,
   "_comments": null,
   "_liked_by": null,
   "_user_tags": null,
   "creation": "2019-07-10 20:28:59.117213",
   "default_value": null,
   "doc_type": "Item Barcode",
   "docstatus": 0,
   "doctype_or_field": "DocField",
   "field_name": "barcode",
   "idx": 0,
   "modified": "2019-07-10 20:28:59.117213",
   "modified_by": "Administrator",
   "name": "Item Barcode-barcode-hidden",
   "owner": "Administrator",
   "parent": null,
   "parentfield": null,
   "parenttype": null,
   "property": "hidden",
   "property_type": "Check",
   "value": "0"
  }
 ],
 "sync_on_migrate": 1
}